Time,CR_SCRAMcmd,RC1,RC2
0 sec,0,50,50
1 sec,0,50,50
2 sec,0,50,50
3 sec,0,50,50
4 sec,0,50,50
5 sec,0,50,50
6 sec,0,50,50
7 sec,0,50,50
8 sec,0,50,50
9 sec,0,50,50
10 sec,0,50,50
11 sec,0,50,50
12 sec,0,50,50
13 sec,0,50,50
14 sec,0,50,50
15 sec,0,50,50
16 sec,0,50,50
17 sec,0,50,50
18 sec,0,50,50
19 sec,0,50,50
20 sec,0,50,50
21 sec,0,50,50
22 sec,0,50,50
23 sec,0,50,50
24 sec,0,50,50
25 sec,0,50,50
26 sec,0,50,50
27 sec,0,50,50
28 sec,0,50,50
29 sec,0,50,50
30 sec,0,50,50
31 sec,0,50,50
32 sec,0,50,50
33 sec,0,50,50
34 sec,0,50,50
35 sec,0,50,50
36 sec,0,50,50
37 sec,0,50,50
38 sec,0,50,50
39 sec,0,50,50
40 sec,0,50,50
41 sec,0,50,50
42 sec,0,50,50
43 sec,0,50,50
44 sec,0,50,50
45 sec,0,50,50
46 sec,0,50,50
47 sec,0,50,50
48 sec,0,50,50
49 sec,0,50,50
50 sec,0,50,50
51 sec,0,50,50
52 sec,0,50,50
53 sec,0,50,50
54 sec,0,50,50
55 sec,0,50,50
56 sec,0,50,50
57 sec,0,50,50
58 sec,0,50,50
59 sec,0,50,50
60 sec,0,50,50
61 sec,0,50,50
62 sec,0,50,50
63 sec,0,50,50
64 sec,0,50,50
65 sec,0,50,50
66 sec,0,50,50
67 sec,0,50,50
68 sec,0,50,50
69 sec,0,50,50
70 sec,0,50,50
71 sec,0,50,50
72 sec,0,50,50
73 sec,0,50,50
74 sec,0,50,50
75 sec,0,50,50
76 sec,0,50,50
77 sec,0,50,50
78 sec,0,50,50
79 sec,0,50,50
80 sec,0,50,50
81 sec,0,50,50
82 sec,0,50,50
83 sec,0,50,50
84 sec,0,50,50
85 sec,0,50,50
86 sec,0,50,50
87 sec,0,50,50
88 sec,0,50,50
89 sec,0,50,50
90 sec,0,50,50
91 sec,0,50,50
92 sec,0,50,50
93 sec,0,50,50
94 sec,0,50,50
95 sec,0,50,50
96 sec,0,50,50
97 sec,0,50,50
98 sec,0,50,50
99 sec,0,50,50
100 sec,0,50,50
101 sec,0,50,50
102 sec,0,50,50
103 sec,0,50,50
104 sec,0,50,50
105 sec,0,50,50
106 sec,0,50,50
107 sec,0,50,50
108 sec,0,50,50
109 sec,0,50,50
110 sec,0,50,50
111 sec,0,50,50
112 sec,0,50,50
113 sec,0,50,50
114 sec,0,50,50
115 sec,0,50,50
116 sec,0,50,50
117 sec,0,50,50
118 sec,0,50,50
119 sec,0,50,50
120 sec,0,50,50
121 sec,0,50,50
122 sec,0,50,50
123 sec,0,50,50
124 sec,0,50,50
125 sec,0,50,50
126 sec,0,50,50
127 sec,0,50,50
128 sec,0,50,50
129 sec,0,50,50
130 sec,0,50,50
131 sec,0,50,50
132 sec,0,50,50
133 sec,0,50,50
134 sec,0,50,50
135 sec,0,50,50
136 sec,0,50,50
137 sec,0,50,50
138 sec,0,50,50
139 sec,0,50,50
140 sec,0,50,50
141 sec,0,50,50
142 sec,0,50,50
143 sec,0,50,50
144 sec,0,50,50
145 sec,0,50,50
146 sec,0,50,50
147 sec,0,50,50
148 sec,0,50,50
149 sec,0,50,50
150 sec,0,50,50
151 sec,0,50,50
152 sec,0,50,50
153 sec,0,50,50
154 sec,0,50,50
155 sec,0,50,50
156 sec,0,50,50
157 sec,0,50,50
158 sec,0,50,50
159 sec,0,50,50
160 sec,0,50,50
161 sec,0,50,50
162 sec,0,50,50
163 sec,0,50,50
164 sec,0,50,50
165 sec,0,50,50
166 sec,0,50,50
167 sec,0,50,50
168 sec,0,50,50
169 sec,0,50,50
170 sec,0,50,50
171 sec,0,50,50
172 sec,0,50,50
173 sec,0,50,50
174 sec,0,50,50
175 sec,0,50,50
176 sec,0,50,50
177 sec,0,50,50
178 sec,0,50,50
179 sec,0,50,50
180 sec,0,50,50
181 sec,0,50,50
182 sec,0,50,50
183 sec,0,50,50
184 sec,0,50,50
185 sec,0,50,50
186 sec,0,50,50
187 sec,0,50,50
188 sec,0,50,50
189 sec,0,50,50
190 sec,0,50,50
191 sec,0,50,50
192 sec,0,50,50
193 sec,0,50,50
194 sec,0,50,50
195 sec,0,50,50
196 sec,0,50,50
197 sec,0,50,50
198 sec,0,50,50
199 sec,0,50,50
200 sec,0,50,50
201 sec,0,50,50
202 sec,0,50,50
203 sec,0,50,50
204 sec,0,50,50
205 sec,0,50,50
206 sec,0,50,50
207 sec,0,50,50
208 sec,0,50,50
209 sec,0,50,50
210 sec,0,50,50
211 sec,0,50,50
212 sec,0,50,50
213 sec,0,50,50
214 sec,0,50,50
215 sec,0,50,50
216 sec,0,50,50
217 sec,0,50,50
218 sec,0,50,50
219 sec,0,50,50
220 sec,0,50,50
221 sec,0,50,50
222 sec,0,50,50
223 sec,0,50,50
224 sec,0,50,50
225 sec,0,50,50
226 sec,0,50,50
227 sec,0,50,50
228 sec,0,50,50
229 sec,0,50,50
230 sec,0,50,50
231 sec,0,50,50
232 sec,0,50,50
233 sec,0,50,50
234 sec,0,50,50
235 sec,0,50,50
236 sec,0,50,50
237 sec,0,50,50
238 sec,0,50,50
239 sec,0,50,50
240 sec,0,50,50
241 sec,0,50,50
242 sec,0,50,50
243 sec,0,50,50
244 sec,0,50,50
245 sec,0,50,50
246 sec,0,50,50
247 sec,0,50,50
248 sec,0,50,50
249 sec,0,50,50
250 sec,0,50,50
251 sec,0,50,50
252 sec,0,50,50
253 sec,0,50,50
254 sec,0,50,50
255 sec,0,50,50
256 sec,0,50,50
257 sec,0,50,50
258 sec,0,50,50
259 sec,0,50,50
260 sec,0,50,50
261 sec,0,50,50
262 sec,0,50,50
263 sec,0,50,50
264 sec,0,50,50
265 sec,0,50,50
266 sec,0,50,50
267 sec,0,50,50
268 sec,0,50,50
269 sec,0,50,50
270 sec,0,50,50
271 sec,0,50,50
272 sec,0,50,50
273 sec,0,50,50
274 sec,0,50,50
275 sec,0,50,50
276 sec,0,50,50
277 sec,0,50,50
278 sec,0,50,50
279 sec,0,50,50
280 sec,0,50,50
281 sec,0,50,50
282 sec,0,50,50
283 sec,0,50,50
284 sec,0,50,50
285 sec,0,50,50
286 sec,0,50,50
287 sec,0,50,50
288 sec,0,50,50
289 sec,0,50,50
290 sec,0,50,50
291 sec,0,50,50
292 sec,0,50,50
293 sec,0,50,50
294 sec,0,50,50
295 sec,0,50,50
296 sec,0,50,50
297 sec,0,50,50
298 sec,0,50,50
299 sec,0,50,50
300 sec,0,50,50
301 sec,0,50,50
302 sec,0,50,50
303 sec,0,50,50
304 sec,0,50,50
305 sec,0,50,50
306 sec,0,50,50
307 sec,0,50,50
308 sec,0,50,50
